<?xml version="1.0" encoding="UTF-8" standalone="no"?>
<svg
   enable-background="new 0 0 96 96"
   viewBox="0 0 65 65"
   version="1.1"
   id="svg4"
   sodipodi:docname="users.svg"
   inkscape:version="1.1.2 (0a00cf5339, 2022-02-04)"
   xmlns:inkscape="http://www.inkscape.org/namespaces/inkscape"
   xmlns:sodipodi="http://sodipodi.sourceforge.net/DTD/sodipodi-0.dtd"
   xmlns="http://www.w3.org/2000/svg"
   xmlns:svg="http://www.w3.org/2000/svg">
  <defs
     id="defs8">
    <inkscape:path-effect
       effect="bspline"
       id="path-effect1538"
       is_visible="true"
       lpeversion="1"
       weight="33.333333"
       steps="2"
       helper_size="0"
       apply_no_weight="true"
       apply_with_weight="true"
       only_selected="false" />
    <inkscape:path-effect
       effect="bspline"
       id="path-effect1534"
       is_visible="true"
       lpeversion="1"
       weight="33.333333"
       steps="2"
       helper_size="0"
       apply_no_weight="true"
       apply_with_weight="true"
       only_selected="false" />
    <inkscape:path-effect
       effect="bspline"
       id="path-effect1413"
       is_visible="true"
       lpeversion="1"
       weight="33.333333"
       steps="2"
       helper_size="0"
       apply_no_weight="true"
       apply_with_weight="true"
       only_selected="false" />
  </defs>
  <sodipodi:namedview
     id="namedview6"
     pagecolor="#ffffff"
     bordercolor="#666666"
     borderopacity="1.0"
     inkscape:pageshadow="2"
     inkscape:pageopacity="0.0"
     inkscape:pagecheckerboard="0"
     showgrid="false"
     inkscape:zoom="1.8547955"
     inkscape:cx="57.418728"
     inkscape:cy="86.53245"
     inkscape:window-width="1920"
     inkscape:window-height="1023"
     inkscape:window-x="1366"
     inkscape:window-y="33"
     inkscape:window-maximized="1"
     inkscape:current-layer="svg4" />
  <g
     id="g1633"
     transform="matrix(0.31332118,0,0,0.31332118,698.46288,80.830801)"
     style="stroke:#0066b3;stroke-width:3.19161316;stroke-miterlimit:4;stroke-dasharray:none;stroke-opacity:1;stroke-linecap:round;stroke-linejoin:round">
    <circle
       style="fill:none;fill-opacity:0.65;stroke:#0066b3;stroke-width:3.19161316;stroke-linecap:round;stroke-linejoin:round;stroke-miterlimit:4;stroke-dasharray:none;stroke-opacity:1"
       id="path1006"
       cx="-2125.6755"
       cy="-192.71429"
       r="38.272808" />
    <path
       style="fill:none;fill-opacity:0.65;stroke:#0066b3;stroke-width:3.19161316;stroke-linecap:round;stroke-linejoin:round;stroke-miterlimit:4;stroke-dasharray:none;stroke-opacity:1"
       id="path1006-3"
       sodipodi:type="arc"
       sodipodi:cx="-2166.9451"
       sodipodi:cy="-196.3799"
       sodipodi:rx="33.638882"
       sodipodi:ry="32.868382"
       sodipodi:start="1.174453"
       sodipodi:end="5.2953989"
       sodipodi:arc-type="arc"
       d="m -2153.9589,-166.05951 a 33.638882,32.868382 0 0 1 -40.8726,-11.93847 33.638882,32.868382 0 0 1 3.9758,-41.50126 33.638882,32.868382 0 0 1 42.4302,-4.31949"
       sodipodi:open="true" />
    <path
       style="fill:none;fill-opacity:0.65;stroke:#0066b3;stroke-width:3.19161316;stroke-linecap:round;stroke-linejoin:round;stroke-miterlimit:4;stroke-dasharray:none;stroke-opacity:1"
       id="path1006-3-6"
       sodipodi:type="arc"
       sodipodi:cx="2084.5657"
       sodipodi:cy="-196.3799"
       sodipodi:rx="33.638882"
       sodipodi:ry="32.868382"
       sodipodi:start="1.174453"
       sodipodi:end="5.2953989"
       sodipodi:arc-type="arc"
       sodipodi:open="true"
       d="m 2097.5519,-166.05951 a 33.638882,32.868382 0 0 1 -40.8726,-11.93847 33.638882,32.868382 0 0 1 3.9758,-41.50126 33.638882,32.868382 0 0 1 42.4301,-4.31949"
       transform="scale(-1,1)" />
    <path
       style="fill:none;stroke:#0066b3;stroke-width:3.19161316;stroke-linecap:round;stroke-linejoin:round;stroke-miterlimit:4;stroke-dasharray:none;stroke-opacity:1"
       d="m -2189.3709,-77.93695 c 0,-7.14776 0,-14.296521 0,-19.791526 0,-5.495004 0,-9.336094 0.1684,-12.469924 0.1684,-3.13383 0.5053,-5.56009 0.9492,-7.7938 0.4438,-2.23372 0.9946,-4.2746 1.7797,-6.36495 0.7852,-2.09034 1.8046,-4.22975 3.0047,-6.28051 1.2001,-2.05076 2.5808,-4.01247 3.9267,-5.70887 1.3459,-1.6964 2.6569,-3.12723 4.2066,-4.51881 1.5498,-1.39157 3.338,-2.74363 5.267,-4.10081 1.9291,-1.35717 3.9988,-2.71934 6.3535,-3.92816 2.3548,-1.20882 4.9942,-2.26416 7.7913,-2.98315 2.7972,-0.71899 5.7515,-1.10169 9.2436,-1.36591 3.4922,-0.26423 7.5219,-0.41004 11.0737,-0.49528 3.5518,-0.0852 6.6256,-0.10994 11.81,-0.12228 5.1844,-0.0123 12.4789,-0.0123 18.1013,0.46597 5.6225,0.47833 9.5723,1.43464 12.9189,2.6116 3.3466,1.17695 6.0898,2.57413 8.7389,4.14198 2.6491,1.56785 5.204,3.30607 7.1397,4.93122 1.9356,1.62516 3.252,3.13682 4.7509,5.14919 1.4989,2.01237 3.1803,4.52523 4.7236,7.54673 1.5433,3.0215 2.9487,6.55139 3.8103,9.73673 0.8616,3.18533 1.1797,6.026 1.3324,9.67834 0.1526,3.65235 0.14,8.11624 0.1336,13.598397 -0.01,5.482161 -0.01,11.982234 -0.01,18.481436"
       id="path1411"
       inkscape:path-effect="#path-effect1413"
       inkscape:original-d="m -2189.3709,-77.93695 c 10e-4,-7.14776 10e-4,-14.296521 0,-21.446282 10e-4,-3.840248 10e-4,-7.681338 0,-11.523498 0.3379,-2.42535 0.6749,-4.8516 1.0108,-7.2789 0.5518,-2.03997 1.1026,-4.08085 1.6524,-6.12278 1.0205,-2.13849 2.0399,-4.2779 3.0583,-6.41835 1.3818,-1.96082 2.7624,-3.92257 4.1421,-5.88535 1.312,-1.42988 2.623,-2.8607 3.933,-4.29255 1.7893,-1.35113 3.5775,-2.70321 5.3648,-4.05632 2.0707,-1.36121 4.1404,-2.72338 6.2092,-4.08657 2.6405,-1.05438 5.2799,-2.10972 7.9184,-3.16608 2.9554,-0.38171 5.9097,-0.76441 8.8631,-1.14812 4.0308,-0.14482 8.0605,-0.29062 12.0892,-0.43743 3.0749,-0.0237 6.1487,-0.0484 9.2216,-0.0741 7.2959,0.001 14.5904,0.001 21.8841,0 3.951,0.95736 7.9008,1.91368 11.8497,2.86902 2.7443,1.39823 5.4875,2.79541 8.2297,4.19161 2.5561,1.73932 5.111,3.47756 7.665,5.21484 1.3175,1.51272 2.6339,3.02439 3.9493,4.53508 1.6825,2.51396 3.3639,5.02682 5.0443,7.53872 1.4065,3.53106 2.8119,7.06097 4.2164,10.58995 0.3191,2.84178 0.6372,5.68245 0.9543,8.52217 -0.012,4.46507 -0.024,8.92896 -0.038,13.391945 0,6.501333 0,13.001406 0,19.500608" />
    <path
       style="fill:none;stroke:#0066b3;stroke-width:3.19161316;stroke-linecap:round;stroke-linejoin:round;stroke-miterlimit:4;stroke-dasharray:none;stroke-opacity:1"
       d="m -2189.3709,-77.93695 127.2177,0.417613"
       id="path1448" />
    <path
       style="fill:none;stroke:#0066b3;stroke-width:3.19161316;stroke-linecap:round;stroke-linejoin:round;stroke-miterlimit:4;stroke-dasharray:none;stroke-opacity:1"
       d="m -2091.6404,-109.46677 3.4071,31.631208"
       id="path1450" />
    <path
       style="fill:none;stroke:#0066b3;stroke-width:3.19161316;stroke-linecap:round;stroke-linejoin:round;stroke-miterlimit:4;stroke-dasharray:none;stroke-opacity:1"
       d="m -2160.4924,-109.19307 -2.3497,31.458499"
       id="path1454" />
    <path
       style="fill:none;stroke:#0066b3;stroke-width:3.19161316;stroke-linecap:round;stroke-linejoin:round;stroke-miterlimit:4;stroke-dasharray:none;stroke-opacity:1"
       d="m -2189.2737,-97.082666 h -32.7453"
       id="path1456" />
    <path
       style="fill:none;stroke:#0066b3;stroke-width:3.19161316;stroke-linecap:round;stroke-linejoin:round;stroke-miterlimit:4;stroke-dasharray:none;stroke-opacity:1"
       d="m -2197.1466,-123.93907 -2.2108,26.542895"
       id="path1458" />
    <path
       style="fill:none;stroke:#0066b3;stroke-width:3.19161316;stroke-linecap:round;stroke-linejoin:round;stroke-miterlimit:4;stroke-dasharray:none;stroke-opacity:1"
       d="m -2061.4904,-96.806944 h 32.5176"
       id="path1460" />
    <path
       style="fill:none;stroke:#0066b3;stroke-width:3.19161316;stroke-linecap:round;stroke-linejoin:round;stroke-miterlimit:4;stroke-dasharray:none;stroke-opacity:1"
       d="m -2054.3796,-124.05498 2.2781,27.099492"
       id="path1464" />
    <path
       style="fill:none;stroke:#0066b3;stroke-width:3.19161316;stroke-linecap:round;stroke-linejoin:round;stroke-miterlimit:4;stroke-dasharray:none;stroke-opacity:1"
       d="m -2222.019,-97.082666 c 0,-3.739344 0,-7.479694 0,-11.289004 0,-3.80932 0,-7.68745 0.162,-10.78663 0.1621,-3.09918 0.4863,-5.41908 0.953,-7.71973 0.4666,-2.30066 1.0758,-4.58178 1.9629,-6.93051 0.887,-2.34874 2.0518,-4.76469 3.3861,-6.94889 1.3342,-2.1842 2.8376,-4.1362 4.4239,-5.94426 1.5863,-1.80806 3.2552,-3.47187 4.8607,-4.90096 1.6054,-1.42909 3.1472,-2.62328 5.315,-4.00203 2.1677,-1.37875 4.9611,-2.94191 7.8362,-4.11808 2.875,-1.17618 5.8311,-1.9653 8.8219,-2.47371 2.9908,-0.50841 6.016,-0.73619 9.0355,-0.891 3.0196,-0.15481 6.0333,-0.23668 9.7721,-0.15586 3.7389,0.0808 8.2025,0.32423 10.8669,0.50089 2.6645,0.17665 3.5296,0.28646 4.3937,0.39613"
       id="path1532"
       inkscape:path-effect="#path-effect1534"
       inkscape:original-d="m -2222.019,-97.082666 c 10e-4,-3.739344 10e-4,-7.479694 0,-11.221044 10e-4,-3.87728 10e-4,-7.75541 0,-11.63462 0.3252,-2.31899 0.6494,-4.63889 0.9726,-6.95984 0.6102,-2.28021 1.2194,-4.56132 1.8276,-6.84348 1.1659,-2.41505 2.3307,-4.83101 3.4946,-7.24801 1.5045,-1.95111 3.0079,-3.90313 4.5104,-5.8562 1.67,-1.66287 3.3389,-3.32668 5.0068,-4.99152 1.5429,-1.19323 3.0847,-2.38743 4.6255,-3.58264 2.7945,-1.56222 5.5879,-3.12537 8.3803,-4.68956 2.9573,-0.78816 5.9134,-1.57729 8.8686,-2.36744 3.0262,-0.22679 6.0514,-0.45457 9.0756,-0.68336 3.0148,-0.0809 6.0285,-0.16274 9.0413,-0.24561 4.4648,0.24442 8.9284,0.48783 13.3911,0.73025 0.8662,0.11081 1.7313,0.22062 2.5955,0.32943" />
    <path
       style="fill:none;stroke:#0066b3;stroke-width:3.19161316;stroke-linecap:round;stroke-linejoin:round;stroke-miterlimit:4;stroke-dasharray:none;stroke-opacity:1"
       d="m -2028.9728,-96.806944 c 0,-4.424466 0,-8.849926 0,-12.959106 0,-4.10917 0,-7.9019 -0.2721,-11.16566 -0.2722,-3.26375 -0.8167,-5.99851 -1.5586,-8.5619 -0.7418,-2.56339 -1.6813,-4.95534 -2.8187,-7.2707 -1.1374,-2.31536 -2.4728,-4.55394 -4.295,-6.97644 -1.8223,-2.4225 -4.1315,-5.02865 -6.2106,-7.0897 -2.079,-2.06105 -3.928,-3.57674 -6.1641,-4.95428 -2.2361,-1.37755 -4.8593,-2.61657 -7.7075,-3.66613 -2.8482,-1.04955 -5.9213,-1.90936 -8.7767,-2.53646 -2.8554,-0.62709 -5.4929,-1.02129 -8.6638,-1.22493 -3.1709,-0.20365 -6.8749,-0.21658 -11.0241,-0.32512 -4.1493,-0.10854 -8.7437,-0.31273 -13.3391,-0.51696"
       id="path1536"
       inkscape:path-effect="#path-effect1538"
       inkscape:original-d="m -2028.9728,-96.806944 c 10e-4,-4.424466 10e-4,-8.849926 0,-13.276396 10e-4,-3.79188 10e-4,-7.58461 0,-11.37842 -0.5435,-2.73386 -1.088,-5.46861 -1.6335,-8.20441 -0.9385,-2.39104 -1.878,-4.78299 -2.8185,-7.17598 -1.3345,-2.23768 -2.6699,-4.47626 -4.0063,-6.71589 -2.3083,-2.60527 -4.6175,-5.21144 -6.9278,-7.81865 -1.848,-1.51474 -3.697,-3.03042 -5.5471,-4.54713 -2.6222,-1.23805 -5.2454,-2.47705 -7.8696,-3.71708 -3.0722,-0.85884 -6.1453,-1.71865 -9.2194,-2.57947 -2.6366,-0.39321 -5.2741,-0.7874 -7.9126,-1.1826 -3.7032,-0.0119 -7.4072,-0.0249 -11.1122,-0.0388 -4.5935,-0.20319 -9.1879,-0.40737 -13.7833,-0.61256" />
  </g>
</svg>
